{'best_result': '200.00 ± 0.00',
 'best_reward': 200.0,
 'duration': '13.03s',
 'test_episode': 2,
 'test_speed': '860.76 step/s',
 'test_step': 209,
 'test_time': '0.24s',
 'train_episode': 106,
 'train_speed': '250.33 step/s',
 'train_step': 3200,
 'train_time/collector': '1.43s',
 'train_time/model': '11.35s'}
Final reward: 200.0, length: 200.0
